<?xml version="1.0" encoding="UTF-8" standalone="no"?>
<svg
   xmlns:dc="http://purl.org/dc/elements/1.1/"
   xmlns:cc="http://creativecommons.org/ns#"
   xmlns:rdf="http://www.w3.org/1999/02/22-rdf-syntax-ns#"
   xmlns:svg="http://www.w3.org/2000/svg"
   xmlns="http://www.w3.org/2000/svg"
   xmlns:sodipodi="http://sodipodi.sourceforge.net/DTD/sodipodi-0.dtd"
   xmlns:inkscape="http://www.inkscape.org/namespaces/inkscape"
   width="137.39372mm"
   height="53.430889mm"
   viewBox="0 0 137.39372 53.430888"
   version="1.1"
   id="svg30235"
   inkscape:version="1.0 (4035a4fb49, 2020-05-01)"
   sodipodi:docname="text_input.svg">
  <defs
     id="defs30229">
    <marker
       inkscape:stockid="Arrow1Sstart"
       orient="auto"
       refY="0"
       refX="0"
       id="Arrow1Sstart"
       style="overflow:visible"
       inkscape:isstock="true">
      <path
         id="path2457"
         d="M 0,0 5,-5 -12.5,0 5,5 Z"
         style="fill:#000000;fill-opacity:1;fill-rule:evenodd;stroke:#000000;stroke-width:1pt;stroke-opacity:1"
         transform="matrix(0.2,0,0,0.2,1.2,0)" />
    </marker>
    <marker
       inkscape:stockid="Arrow1Send"
       orient="auto"
       refY="0"
       refX="0"
       id="Arrow1Send"
       style="overflow:visible"
       inkscape:isstock="true">
      <path
         id="path2460"
         d="M 0,0 5,-5 -12.5,0 5,5 Z"
         style="fill:#000000;fill-opacity:1;fill-rule:evenodd;stroke:#000000;stroke-width:1pt;stroke-opacity:1"
         transform="matrix(-0.2,0,0,-0.2,-1.2,0)" />
    </marker>
    <marker
       inkscape:stockid="Arrow1Mend"
       orient="auto"
       refY="0"
       refX="0"
       id="marker31231"
       style="overflow:visible"
       inkscape:isstock="true">
      <path
         id="path31229"
         d="M 0,0 5,-5 -12.5,0 5,5 Z"
         style="fill:#000000;fill-opacity:1;fill-rule:evenodd;stroke:#000000;stroke-width:1pt;stroke-opacity:1"
         transform="matrix(-0.4,0,0,-0.4,-4,0)" />
    </marker>
  </defs>
  <sodipodi:namedview
     id="base"
     pagecolor="#ffffff"
     bordercolor="#666666"
     borderopacity="1.0"
     inkscape:pageopacity="0.0"
     inkscape:pageshadow="2"
     inkscape:zoom="0.45062103"
     inkscape:cx="444.15221"
     inkscape:cy="-128.299"
     inkscape:document-units="mm"
     inkscape:current-layer="layer1"
     inkscape:document-rotation="0"
     showgrid="false"
     fit-margin-top="0"
     fit-margin-left="0"
     fit-margin-right="0"
     fit-margin-bottom="0"
     inkscape:window-width="1294"
     inkscape:window-height="708"
     inkscape:window-x="0"
     inkscape:window-y="0"
     inkscape:window-maximized="1" />
  <metadata
     id="metadata30232">
    <rdf:RDF>
      <cc:Work
         rdf:about="">
        <dc:format>image/svg+xml</dc:format>
        <dc:type
           rdf:resource="http://purl.org/dc/dcmitype/StillImage" />
        <dc:title></dc:title>
      </cc:Work>
    </rdf:RDF>
  </metadata>
  <g
     inkscape:label="Layer 1"
     inkscape:groupmode="layer"
     id="layer1"
     transform="translate(-6.4620347,-131.26845)">
    <rect
       y="131.26845"
       x="6.4620347"
       height="53.430889"
       width="137.39372"
       id="rect40401"
       style="color:#000000;overflow:visible;fill:#ffffff;stroke-width:2;stroke-linecap:round;stroke-linejoin:round" />
    <g
       style="font-style:normal;font-variant:normal;font-weight:normal;font-stretch:normal;font-size:9.87778px;line-height:125%;font-family:'DejaVu Sans Mono';-inkscape-font-specification:'DejaVu Sans Mono';letter-spacing:0px;word-spacing:0px;fill:#000000;fill-opacity:1;stroke:none;stroke-width:0.264583px;stroke-linecap:butt;stroke-linejoin:miter;stroke-opacity:1"
       id="text30963-5"
       aria-label="text-input">
      <path
         id="path40377"
         style="font-style:normal;font-variant:normal;font-weight:normal;font-stretch:normal;font-size:9.87778px;font-family:'DejaVu Sans Mono';-inkscape-font-specification:'DejaVu Sans Mono';fill:#000000;fill-opacity:1;stroke:none;stroke-width:0.264583px"
         d="m 53.331556,166.29398 v 1.53375 h 2.016071 v 0.68971 h -2.016071 v 2.93247 q 0,0.59807 0.226688,0.8344 0.226687,0.23633 0.790994,0.23633 h 0.998389 v 0.709 h -1.085206 q -0.998389,0 -1.408355,-0.40032 -0.409967,-0.40032 -0.409967,-1.37941 v -2.93247 h -1.442117 v -0.68971 h 1.442117 v -1.53375 z" />
      <path
         id="path40379"
         style="font-style:normal;font-variant:normal;font-weight:normal;font-stretch:normal;font-size:9.87778px;font-family:'DejaVu Sans Mono';-inkscape-font-specification:'DejaVu Sans Mono';fill:#000000;fill-opacity:1;stroke:none;stroke-width:0.264583px"
         d="m 61.680403,170.30683 v 0.43408 h -3.844039 v 0.0289 q 0,0.88263 0.458198,1.36494 0.463021,0.48232 1.302246,0.48232 0.424436,0 0.887457,-0.13505 0.463021,-0.13505 0.988743,-0.40997 v 0.88264 q -0.506429,0.20739 -0.979097,0.30868 -0.467844,0.10611 -0.906749,0.10611 -1.258838,0 -1.967839,-0.75241 -0.709001,-0.75724 -0.709001,-2.0836 0,-1.2926 0.694532,-2.0643 0.694531,-0.7717 1.852083,-0.7717 1.032151,0 1.625397,0.69935 0.598069,0.69936 0.598069,1.90997 z m -0.887457,-0.26045 q -0.01929,-0.78135 -0.371382,-1.1865 -0.347265,-0.40996 -1.003212,-0.40996 -0.641477,0 -1.056266,0.42443 -0.41479,0.42444 -0.49196,1.17685 z" />
      <path
         id="path40381"
         style="font-style:normal;font-variant:normal;font-weight:normal;font-stretch:normal;font-size:9.87778px;font-family:'DejaVu Sans Mono';-inkscape-font-specification:'DejaVu Sans Mono';fill:#000000;fill-opacity:1;stroke:none;stroke-width:0.264583px"
         d="m 67.656266,167.82773 -1.934077,2.5852 2.12218,2.81671 h -1.027328 l -1.581988,-2.16558 -1.577165,2.16558 H 62.63056 l 2.122179,-2.81671 -1.934077,-2.5852 h 0.98392 l 1.432471,1.95337 1.422825,-1.95337 z" />
      <path
         id="path40383"
         style="font-style:normal;font-variant:normal;font-weight:normal;font-stretch:normal;font-size:9.87778px;font-family:'DejaVu Sans Mono';-inkscape-font-specification:'DejaVu Sans Mono';fill:#000000;fill-opacity:1;stroke:none;stroke-width:0.264583px"
         d="m 71.172331,166.29398 v 1.53375 h 2.01607 v 0.68971 h -2.01607 v 2.93247 q 0,0.59807 0.226687,0.8344 0.226687,0.23633 0.790994,0.23633 h 0.998389 v 0.709 h -1.085205 q -0.998389,0 -1.408356,-0.40032 -0.409966,-0.40032 -0.409966,-1.37941 v -2.93247 h -1.442117 v -0.68971 h 1.442117 v -1.53375 z" />
      <path
         id="path40385"
         style="font-style:normal;font-variant:normal;font-weight:normal;font-stretch:normal;font-size:9.87778px;font-family:'DejaVu Sans Mono';-inkscape-font-specification:'DejaVu Sans Mono';fill:#000000;fill-opacity:1;stroke:none;stroke-width:0.264583px"
         d="m 75.874888,170.12837 h 2.512853 v 0.79099 h -2.512853 z" />
      <path
         id="path40387"
         style="font-style:normal;font-variant:normal;font-weight:normal;font-stretch:normal;font-size:9.87778px;font-family:'DejaVu Sans Mono';-inkscape-font-specification:'DejaVu Sans Mono';fill:#000000;fill-opacity:1;stroke:none;stroke-width:0.264583px"
         d="m 81.339501,167.82773 h 2.271696 v 4.71221 h 1.760444 v 0.6897 h -4.408345 v -0.6897 h 1.760444 v -4.0225 h -1.384239 z m 1.384239,-2.10288 h 0.887457 v 1.12379 H 82.72374 Z" />
      <path
         id="path40389"
         style="font-style:normal;font-variant:normal;font-weight:normal;font-stretch:normal;font-size:9.87778px;font-family:'DejaVu Sans Mono';-inkscape-font-specification:'DejaVu Sans Mono';fill:#000000;fill-opacity:1;stroke:none;stroke-width:0.264583px"
         d="m 91.120815,169.88239 v 3.34725 h -0.89228 v -3.34725 q 0,-0.72829 -0.255626,-1.07074 -0.255626,-0.34244 -0.80064,-0.34244 -0.622185,0 -0.959804,0.44373 -0.332796,0.4389 -0.332796,1.26366 v 3.05304 h -0.887457 v -5.40191 h 0.887457 v 0.81029 q 0.236333,-0.46302 0.641477,-0.69935 0.405143,-0.24116 0.959803,-0.24116 0.824756,0 1.2299,0.54501 0.409966,0.54019 0.409966,1.63987 z" />
      <path
         id="path40391"
         style="font-style:normal;font-variant:normal;font-weight:normal;font-stretch:normal;font-size:9.87778px;font-family:'DejaVu Sans Mono';-inkscape-font-specification:'DejaVu Sans Mono';fill:#000000;fill-opacity:1;stroke:none;stroke-width:0.264583px"
         d="m 93.807302,172.54958 v 2.73472 h -0.89228 v -7.45657 h 0.89228 v 0.68971 q 0.221864,-0.40032 0.588423,-0.60771 0.371381,-0.21222 0.853695,-0.21222 0.979096,0 1.533756,0.75723 0.559484,0.75723 0.559484,2.09806 0,1.31672 -0.559484,2.06913 -0.559483,0.74759 -1.533756,0.74759 -0.49196,0 -0.863342,-0.2074 -0.366558,-0.21222 -0.578776,-0.61254 z m 2.604493,-2.01607 q 0,-1.03215 -0.327973,-1.55787 -0.32315,-0.52572 -0.964627,-0.52572 -0.6463,0 -0.979096,0.53054 -0.332797,0.52572 -0.332797,1.55305 0,1.02251 0.332797,1.55305 0.332796,0.53055 0.979096,0.53055 0.641477,0 0.964627,-0.52573 0.327973,-0.52572 0.327973,-1.55787 z" />
      <path
         id="path40393"
         style="font-style:normal;font-variant:normal;font-weight:normal;font-stretch:normal;font-size:9.87778px;font-family:'DejaVu Sans Mono';-inkscape-font-specification:'DejaVu Sans Mono';fill:#000000;fill-opacity:1;stroke:none;stroke-width:0.264583px"
         d="m 98.886064,171.18464 v -3.34726 h 0.887457 v 3.34726 q 0,0.72829 0.255629,1.07073 0.26045,0.34244 0.80064,0.34244 0.627,0 0.9598,-0.4389 0.3328,-0.44373 0.3328,-1.26849 v -3.05304 h 0.89228 v 5.39226 h -0.89228 v -0.81028 q -0.23634,0.46784 -0.6463,0.709 -0.40515,0.24116 -0.95016,0.24116 -0.829579,0 -1.234723,-0.5402 -0.405143,-0.54501 -0.405143,-1.64468 z" />
      <path
         id="path40395"
         style="font-style:normal;font-variant:normal;font-weight:normal;font-stretch:normal;font-size:9.87778px;font-family:'DejaVu Sans Mono';-inkscape-font-specification:'DejaVu Sans Mono';fill:#000000;fill-opacity:1;stroke:none;stroke-width:0.264583px"
         d="m 106.85388,166.29398 v 1.53375 h 2.01607 v 0.68971 h -2.01607 v 2.93247 q 0,0.59807 0.22669,0.8344 0.22669,0.23633 0.791,0.23633 h 0.99838 v 0.709 h -1.0852 q -0.99839,0 -1.40836,-0.40032 -0.40996,-0.40032 -0.40996,-1.37941 v -2.93247 h -1.44212 v -0.68971 h 1.44212 v -1.53375 z" />
    </g>
    <g
       style="font-style:normal;font-variant:normal;font-weight:normal;font-stretch:normal;font-size:41.1385px;line-height:125%;font-family:Dyuthi;-inkscape-font-specification:Dyuthi;letter-spacing:0px;word-spacing:0px;display:inline;opacity:0.995;fill:none;stroke:#000000;stroke-width:1.37129px;stroke-linecap:butt;stroke-linejoin:miter;stroke-opacity:1"
       id="text1452-5-2-8-0"
       transform="scale(0.90149947,1.109263)"
       aria-label="A
">
      <path
         id="path40398"
         style="stroke-width:1.37129px"
         d="m 135.02283,140.58871 h 6.52833 l -3.25412,-9.01914 z m 7.89426,-10.96759 q 0,0 6.4078,17.75705 0.52227,1.44627 -0.38166,2.69168 -0.90392,1.26549 -2.41046,1.26549 h -0.44191 q -0.96419,0 -1.78776,-0.60262 -0.82357,-0.58252 -0.98427,-1.46636 l -1.04453,-4.98161 h -7.61304 l -0.96418,4.92135 q -0.18078,0.96418 -1.02444,1.54671 -0.86375,0.58253 -2.00872,0.58253 H 130.222 q -1.50653,0 -2.39037,-1.26549 -0.88383,-1.24541 -0.40174,-2.69168 l 6.08641,-17.6767 q 0.52226,-1.52663 1.80784,-2.43055 1.28558,-0.90392 2.61133,-0.90392 h 0.56244 q 1.30567,0 2.59124,0.90392 1.30567,0.90392 1.82794,2.3502 z" />
    </g>
    <g
       id="g5133-8"
       style="display:inline;opacity:0.94"
       transform="matrix(0.1224467,0,0,0.1224467,-11.017255,97.567471)">
      <circle
         style="fill:#ffbc00;fill-opacity:1;stroke:none"
         id="path2985-6"
         cx="341.42856"
         cy="465.21933"
         r="122.85714" />
      <g
         transform="scale(0.9155896,1.0921924)"
         style="font-style:normal;font-variant:normal;font-weight:bold;font-stretch:normal;font-size:437.474px;line-height:125%;letter-spacing:0px;word-spacing:0px;fill:#ffffff;fill-opacity:1;stroke:none"
         id="text2987-04">
        <path
           d="m 443.91049,314.59549 h 2.34971 l -1.49527,1.49528 h -0.85444 v -1.49528 m -173.02434,3.63138 v 1.70888 l -5.55387,6.83553 h -0.85444 l -0.85444,-5.34026 c 3.27538,-2.13591 5.69629,-3.20396 7.26275,-3.20415 m 202.50256,2.34971 c 4.84164,1.9e-4 7.54736,3.06194 8.11719,9.18524 l -4.0586,28.83739 h 1.49528 l 3.20415,-2.1361 h 0.85444 v 0.64083 c -4.41481,2.70589 -8.68701,10.11103 -12.81662,22.21547 -1.56666,10.39583 -4.20118,20.00828 -7.90358,28.83739 -3.27553,9.11414 -4.91321,17.51613 -4.91303,25.20602 l -6.1947,15.16633 c -1.7e-4,1.28172 2.34954,2.56338 7.04914,3.84498 -0.85462,2.9906 -2.13628,4.48587 -3.84499,4.48582 v 0.85444 h 1.49527 v 0.64083 c -1.7e-4,1.56653 -2.42108,2.34977 -7.26275,2.34971 l 0.85444,0.85444 v 2.99055 h -1.49527 c 0.99668,2.99059 3.13279,4.48586 6.40831,4.48581 v 1.49528 h -6.40831 v 0.85444 c 2.13594,4e-5 3.20399,1.2817 3.20416,3.84498 l -8.97163,2.99055 0.85444,0.85444 v 0.64083 c -1.6e-4,0.99688 -1.06821,1.4953 -3.20416,1.49527 v 0.85444 c 2.70557,3e-5 4.05844,0.49846 4.0586,1.49527 -3.84515,1.28169 -8.90058,7.61879 -15.16633,19.01132 -6.40845,10.11089 -11.96231,15.16633 -16.66161,15.16633 h -1.70888 c -3.56029,-2.27851 -6.47963,-9.82607 -8.75802,-22.64269 -9.11415,-19.5097 -13.67116,-30.97344 -13.67106,-34.39126 -1e-4,-8.82916 -2.91944,-18.228 -8.75802,-28.19656 -1.56657,-4.41452 -2.63462,-9.96839 -3.20416,-16.6616 l -3.84498,-0.85444 c -9.68375,14.66799 -14.73919,26.13173 -15.16633,34.39126 -2.7058,4.84189 -4.8419,10.68057 -6.40831,17.51604 5.83861,1.56652 8.75795,3.06179 8.75802,4.48582 v 0.85444 c -4.55709,-0.56959 -7.76124,-1.63764 -9.61246,-3.20416 -1.99376,3.84503 -4.62829,14.52553 -7.90358,32.04155 -2.56338,8.11719 -5.76753,12.17578 -9.61247,12.17578 -10.82295,-3.56016 -19.86578,-9.39884 -27.1285,-17.51604 -1.13928,2e-5 -2.99057,-4.05857 -5.55387,-12.17579 -1.56649,3e-5 -2.63454,-4.05856 -3.20415,-12.17578 -5.41147,-11.5349 -9.11405,-24.70753 -11.10774,-39.51791 v -22.21547 h -0.85444 l -3.84499,0.85444 v -0.85444 c 1e-5,-0.99674 1.28167,-1.49516 3.84499,-1.49527 l -0.85444,-12.81662 V 385.3005 l -6.1947,-32.04154 V 339.5879 c 2.70573,-8.54423 7.40515,-12.81643 14.09828,-12.81662 h 44.85816 v 1.49527 c -3.56022,0.14259 -5.98114,0.92583 -7.26275,2.34972 -2.70577,-1.5663 -5.3403,-2.34953 -7.90358,-2.34972 h -8.75802 l -4.91304,0.64083 -0.85444,-0.64083 h -0.64083 l -6.40831,0.64083 -3.20415,-0.64083 -2.34972,0.64083 -2.56332,-0.64083 c 10.39568,11.39272 16.51917,21.00518 18.37048,28.83739 h 7.26275 v 1.49527 h -5.55386 v 1.70889 c 2.13607,6.55086 3.70254,9.82621 4.69942,9.82607 h 1.70889 l 3.84498,-0.85444 0.85444,0.85444 0.85444,-0.85444 0.85444,0.85444 v 0.64083 c -2.84817,1.70902 -4.77066,4.05873 -5.76747,7.04914 h -0.64083 v 1.49527 h 1.49527 c 1.99366,23.78206 5.69623,41.79651 11.10773,54.04341 l 3.20416,2.1361 h 1.70888 c 2.13605,8e-5 6.62186,-8.33072 13.45745,-24.99241 4.41454,-7.54745 7.61869,-14.16936 9.61246,-19.86575 l -0.85444,-2.34972 c 4.41453,-5.55373 8.97155,-8.33066 13.67106,-8.3308 h 1.49527 c 2.99045,1.4e-4 5.12655,1.56661 6.40831,4.69943 3.98729,4.69955 7.19144,11.74868 9.61246,21.14742 l 11.96218,22.21547 c 1.56635,1.56656 2.34959,3.34664 2.34971,5.34026 4.41449,8.40207 8.40188,13.95593 11.96218,16.6616 h 2.56332 c 2.99041,6e-5 6.9778,-10.39563 11.96218,-31.1871 0.85429,9e-5 3.204,-5.55377 7.04914,-16.66161 v -0.85444 l -13.45745,-1.49527 -3.20416,0.85444 h -4.05859 v -1.70888 l 8.11719,-0.64083 h 15.80716 c 6.12333,-18.37035 11.7484,-32.61103 16.87521,-42.72206 1.70871,-20.79122 4.05842,-31.18691 7.04914,-31.1871 l 9.61247,-3.84499 m -45.49899,2.34971 c -0.85459,1.99389 -2.70588,2.99074 -5.55387,2.99055 v -1.49527 l 5.55387,-1.49528 m -80.53108,3.84499 h 21.57464 v 1.49527 l -4.91304,0.64083 -4.69943,-0.64083 -4.05859,1.49527 -1.49528,-1.49527 h -6.4083 v -1.49527 m -112.35902,2.99054 h 2.34972 l 1.49527,1.49528 v 0.85444 l -4.69943,4.48581 v 3.84499 h -1.70888 v -2.34971 l 0.85444,-0.64084 v -0.85444 l -4.0586,-3.84498 c 0.99691,-1.99352 2.9194,-2.99036 5.76748,-2.99055 m 157.00357,9.18525 h 2.34971 v 0.64083 c -1.1e-4,0.99702 -0.78335,1.49544 -2.34971,1.49527 l -0.85444,0.85444 v 0.85444 l -2.34972,-0.85444 v -1.49527 l 3.20416,-1.49527 m -11.96218,8.3308 v 0.85444 c -1e-4,1.13942 -3.41786,2.34988 -10.25329,3.63137 v -1.49527 l 4.69942,-2.1361 0.85444,0.64083 h 0.64083 l 4.0586,-1.49527 m -139.48752,7.68997 v 0.64083 l -1.70888,1.49527 -0.64083,-0.64083 v -0.85444 l 0.64083,-0.64083 h 1.70888 m 116.41761,0 v 0.64083 c -2.99062,2.27866 -7.83244,4.34356 -14.5255,6.1947 v -1.49527 c 1.13919,1.5e-4 1.70882,-0.78309 1.70888,-2.34972 l 12.81662,-2.99054 m 40.58595,7.47636 0.85445,0.85444 v 0.64083 l -1.49528,1.70888 h -0.85444 l -1.70888,-1.70888 v -0.64083 l 3.20415,-0.85444 m 29.47822,0.85444 h 0.85445 v 0.64083 l -1.49528,1.70888 H 425.54 v -0.85444 l 1.49527,-1.49527 m -13.45744,10.68051 3.20415,2.13611 c -0.56976,1.56661 -2.13623,2.34985 -4.69943,2.34971 l -1.70888,-2.34971 c -1.3e-4,-0.7119 1.06792,-1.42393 3.20416,-2.13611 m 19.22492,9.82608 0.64083,0.85444 v 0.64083 l -0.64083,0.85444 h -1.70888 v -0.85444 l 1.70888,-1.49527 m -30.33266,7.68997 v 0.64083 l -4.05859,3.20415 h -2.34972 v -0.85444 c -1.1e-4,-1.28154 2.13599,-2.27839 6.40831,-2.99054 m -132.43838,29.69183 h 0.85444 v 0.64083 c -2.13609,4.69951 -3.98737,7.54765 -5.55387,8.54441 h -1.70888 v -3.20415 l 6.40831,-5.98109 m 104.45543,35.67292 h 0.85444 v 1.49527 l -6.4083,3.20415 -0.85445,-0.85444 v -1.49527 l 6.40831,-2.34971 m -87.79383,10.03968 h 1.49527 l 2.56333,8.3308 h -1.70888 l -2.34972,-7.68997 v -0.64083 m 85.44412,9.82607 h 0.64083 l 2.56332,2.34972 -0.85444,0.64083 h -0.85444 l -1.49527,-2.1361 v -0.85445"
           id="path2986-8"
           inkscape:connector-curvature="0"
           sodipodi:nodetypes="cccccccccccccccccccccccccccccccccccccccccccsccccccccccccccccccccsccccccccccccccccccccccccccccccccccccccccccccccccccccccccccccccccccccccccccccccccccccccccccccccccccccccccccccccccccccccccccccccccccccccccccccccccccccccccccccccccccccccccccccccc" />
      </g>
    </g>
    <path
       style="display:inline;opacity:1;fill:none;fill-rule:evenodd;stroke:#000000;stroke-width:2;stroke-linecap:butt;stroke-linejoin:miter;stroke-miterlimit:4;stroke-dasharray:none;stroke-opacity:1;marker-start:url(#Arrow1Sstart);marker-end:url(#Arrow1Send)"
       d="m 68.558883,155.08604 h 22.75417"
       id="path7485-0" />
  </g>
</svg>
