<?xml version="1.0" encoding="UTF-8" standalone="no"?>
<svg
   xmlns:dc="http://purl.org/dc/elements/1.1/"
   xmlns:cc="http://creativecommons.org/ns#"
   xmlns:rdf="http://www.w3.org/1999/02/22-rdf-syntax-ns#"
   xmlns:svg="http://www.w3.org/2000/svg"
   xmlns="http://www.w3.org/2000/svg"
   xmlns:sodipodi="http://sodipodi.sourceforge.net/DTD/sodipodi-0.dtd"
   xmlns:inkscape="http://www.inkscape.org/namespaces/inkscape"
   width="146.55452mm"
   height="38.723289mm"
   viewBox="0 0 146.55452 38.723289"
   version="1.1"
   id="svg8"
   inkscape:version="1.0.2 (e86c870879, 2021-01-15)"
   sodipodi:docname="diagram annotated.svg">
  <defs
     id="defs2">
    <marker
       style="overflow:visible"
       id="marker2302"
       refX="0"
       refY="0"
       orient="auto"
       inkscape:stockid="Arrow1Mend"
       inkscape:isstock="true">
      <path
         transform="matrix(-0.4,0,0,-0.4,-4,0)"
         style="fill:#000000;fill-opacity:1;fill-rule:evenodd;stroke:#000000;stroke-width:1pt;stroke-opacity:1"
         d="M 0,0 5,-5 -12.5,0 5,5 Z"
         id="path2300" />
    </marker>
    <marker
       style="overflow:visible"
       id="marker2158"
       refX="0"
       refY="0"
       orient="auto"
       inkscape:stockid="Arrow1Mend"
       inkscape:isstock="true"
       inkscape:collect="always">
      <path
         transform="matrix(-0.4,0,0,-0.4,-4,0)"
         style="fill:#000000;fill-opacity:1;fill-rule:evenodd;stroke:#000000;stroke-width:1pt;stroke-opacity:1"
         d="M 0,0 5,-5 -12.5,0 5,5 Z"
         id="path2156" />
    </marker>
    <marker
       style="overflow:visible"
       id="marker2106"
       refX="0"
       refY="0"
       orient="auto"
       inkscape:stockid="Arrow1Mend"
       inkscape:isstock="true">
      <path
         transform="matrix(-0.4,0,0,-0.4,-4,0)"
         style="fill:#000000;fill-opacity:1;fill-rule:evenodd;stroke:#000000;stroke-width:1pt;stroke-opacity:1"
         d="M 0,0 5,-5 -12.5,0 5,5 Z"
         id="path2104" />
    </marker>
    <marker
       style="overflow:visible"
       id="marker2044"
       refX="0"
       refY="0"
       orient="auto"
       inkscape:stockid="Arrow1Mend"
       inkscape:isstock="true"
       inkscape:collect="always">
      <path
         transform="matrix(-0.4,0,0,-0.4,-4,0)"
         style="fill:#000000;fill-opacity:1;fill-rule:evenodd;stroke:#000000;stroke-width:1pt;stroke-opacity:1"
         d="M 0,0 5,-5 -12.5,0 5,5 Z"
         id="path2042" />
    </marker>
    <marker
       style="overflow:visible"
       id="marker1928"
       refX="0"
       refY="0"
       orient="auto"
       inkscape:stockid="Arrow1Mend"
       inkscape:isstock="true"
       inkscape:collect="always">
      <path
         transform="matrix(-0.4,0,0,-0.4,-4,0)"
         style="fill:#000000;fill-opacity:1;fill-rule:evenodd;stroke:#000000;stroke-width:1pt;stroke-opacity:1"
         d="M 0,0 5,-5 -12.5,0 5,5 Z"
         id="path1926" />
    </marker>
    <marker
       style="overflow:visible"
       id="marker1880"
       refX="0"
       refY="0"
       orient="auto"
       inkscape:stockid="Arrow1Mend"
       inkscape:isstock="true"
       inkscape:collect="always">
      <path
         transform="matrix(-0.4,0,0,-0.4,-4,0)"
         style="fill:#000000;fill-opacity:1;fill-rule:evenodd;stroke:#000000;stroke-width:1pt;stroke-opacity:1"
         d="M 0,0 5,-5 -12.5,0 5,5 Z"
         id="path1878" />
    </marker>
    <marker
       style="overflow:visible"
       id="Arrow1Mend"
       refX="0"
       refY="0"
       orient="auto"
       inkscape:stockid="Arrow1Mend"
       inkscape:isstock="true"
       inkscape:collect="always">
      <path
         transform="matrix(-0.4,0,0,-0.4,-4,0)"
         style="fill:#000000;fill-opacity:1;fill-rule:evenodd;stroke:#000000;stroke-width:1pt;stroke-opacity:1"
         d="M 0,0 5,-5 -12.5,0 5,5 Z"
         id="path1521" />
    </marker>
    <marker
       style="overflow:visible"
       id="Arrow1Lend"
       refX="0"
       refY="0"
       orient="auto"
       inkscape:stockid="Arrow1Lend"
       inkscape:isstock="true">
      <path
         transform="matrix(-0.8,0,0,-0.8,-10,0)"
         style="fill:#000000;fill-opacity:1;fill-rule:evenodd;stroke:#000000;stroke-width:1pt;stroke-opacity:1"
         d="M 0,0 5,-5 -12.5,0 5,5 Z"
         id="path1515" />
    </marker>
    <marker
       style="overflow:visible"
       id="Arrow1Lstart"
       refX="0"
       refY="0"
       orient="auto"
       inkscape:stockid="Arrow1Lstart"
       inkscape:isstock="true">
      <path
         transform="matrix(0.8,0,0,0.8,10,0)"
         style="fill:#000000;fill-opacity:1;fill-rule:evenodd;stroke:#000000;stroke-width:1pt;stroke-opacity:1"
         d="M 0,0 5,-5 -12.5,0 5,5 Z"
         id="path1512" />
    </marker>
  </defs>
  <sodipodi:namedview
     id="base"
     pagecolor="#ffffff"
     bordercolor="#666666"
     borderopacity="1.0"
     inkscape:pageopacity="0.0"
     inkscape:pageshadow="2"
     inkscape:zoom="0.90108901"
     inkscape:cx="238.64417"
     inkscape:cy="41.698006"
     inkscape:document-units="mm"
     inkscape:current-layer="layer1"
     inkscape:document-rotation="0"
     showgrid="false"
     inkscape:window-width="1298"
     inkscape:window-height="708"
     inkscape:window-x="0"
     inkscape:window-y="0"
     inkscape:window-maximized="1"
     fit-margin-top="5"
     lock-margins="true"
     fit-margin-left="5"
     fit-margin-right="5"
     fit-margin-bottom="5" />
  <metadata
     id="metadata5">
    <rdf:RDF>
      <cc:Work
         rdf:about="">
        <dc:format>image/svg+xml</dc:format>
        <dc:type
           rdf:resource="http://purl.org/dc/dcmitype/StillImage" />
        <dc:title />
      </cc:Work>
    </rdf:RDF>
  </metadata>
  <g
     inkscape:label="Layer 1"
     inkscape:groupmode="layer"
     id="layer1"
     transform="translate(-47.492967,-91.553809)">
    <rect
       style="color:#000000;overflow:visible;fill:#ffffff;fill-opacity:1;stroke-width:0.264999;stroke-linejoin:round"
       id="rect3439"
       width="151.51111"
       height="43.750301"
       x="46.024837"
       y="89.498428" />
    <path
       id="rect1015"
       style="color:#000000;overflow:visible;fill:#6d0000;fill-opacity:1;stroke:none;stroke-width:0.13882;stroke-linecap:round;stroke-linejoin:round;stroke-miterlimit:4;stroke-dasharray:none;stroke-dashoffset:0;stroke-opacity:0.700535"
       d="m 127.70796,111.57095 c 0,-1.01099 6.16406,-1.0569 6.16406,-1.0569 v 2.11748 c 0,0 -6.16406,-0.0496 -6.16406,-1.06058 z"
       sodipodi:nodetypes="zccz" />
    <path
       id="rect1390"
       style="color:#000000;overflow:visible;fill:#000000;fill-opacity:1;stroke:#000000;stroke-width:0.755906;stroke-linecap:round;stroke-linejoin:round;stroke-miterlimit:4;stroke-dasharray:none;stroke-dashoffset:0;stroke-opacity:1"
       d="m 510.78516,408.2168 0.10156,7.50976 h -4.44531 v 11.92383 h 4.60547 l 0.11132,8.26758 c 0,0 -0.0448,-4.56536 -0.0801,-8.26758 h 3.17383 l 0.11133,8.26758 c 0,0 -0.0448,-4.56536 -0.0801,-8.26758 h 3.17383 l 0.11133,8.26758 c 0,0 -0.0445,-4.56536 -0.0801,-8.26758 h 3.17383 l 0.11133,8.26758 c 0,0 -0.0445,-4.56536 -0.0801,-8.26758 h 3.17187 l 0.11133,8.26758 c 0,0 -0.0448,-4.56536 -0.0801,-8.26758 h 3.17383 l 0.11133,8.26758 c 0,0 -0.0448,-4.56536 -0.0801,-8.26758 h 3.17383 l 0.11133,8.26758 c 0,0 -0.0445,-4.56536 -0.0801,-8.26758 h 3.17383 l 0.11133,8.26758 c 0,0 -0.0445,-4.56536 -0.0801,-8.26758 h 3.17187 l 0.11133,8.26758 c 0,0 -0.0448,-4.56536 -0.0801,-8.26758 h 3.17383 L 540,435.91797 c 0,0 -0.0445,-4.56536 -0.0801,-8.26758 h 3.17383 l 0.11133,8.26758 c 0,0 -0.0445,-4.56536 -0.0801,-8.26758 h 3.17383 l 0.11133,8.26758 c 0,0 -0.0445,-4.56536 -0.0801,-8.26758 h 3.17187 l 0.11133,8.26758 c 0,0 -0.0448,-4.56536 -0.0801,-8.26758 h 3.17383 l 0.11133,8.26758 c 0,0 -0.0445,-4.56536 -0.0801,-8.26758 h 3.17383 l 0.11133,8.26758 c 0,0 -0.0445,-4.56536 -0.0801,-8.26758 h 3.17383 l 0.11133,8.26758 c 0,0 -0.0445,-4.56536 -0.0801,-8.26758 h 3.17187 l 0.11133,8.26758 c 0,0 -0.0448,-4.56536 -0.0801,-8.26758 h 3.17383 l 0.11133,8.26758 c 0,0 -0.0445,-4.56536 -0.0801,-8.26758 h 3.17383 l 0.11133,8.26758 c 0,0 -0.0445,-4.56536 -0.0801,-8.26758 h 3.17187 l 0.11133,8.26758 c 0,0 -0.0448,-4.56536 -0.0801,-8.26758 h 3.17383 l 0.11133,8.26758 c 0,0 -0.0448,-4.56536 -0.0801,-8.26758 h 3.17383 l 0.11133,8.26758 c 0,0 -0.0445,-4.56536 -0.0801,-8.26758 h 3.17383 l 0.11133,8.26758 c 0,0 -0.0445,-4.56536 -0.0801,-8.26758 h 3.17187 l 0.11133,8.26758 c 0,0 -0.0448,-4.56536 -0.0801,-8.26758 h 3.17383 l 0.11133,8.26758 c 0,0 -0.0448,-4.56536 -0.0801,-8.26758 h 3.17383 l 0.11133,8.26758 c 0,0 -0.0445,-4.56536 -0.0801,-8.26758 h 3.17383 l 0.11133,8.26758 c 0,0 -0.0445,-4.56536 -0.0801,-8.26758 h 3.17187 l 0.11133,8.26758 c 0,0 -0.0448,-4.56536 -0.0801,-8.26758 h 3.17383 l 0.11133,8.26758 c 0,0 -0.0448,-4.56536 -0.0801,-8.26758 h 3.17383 l 0.11133,8.26758 c 0,0 -0.0445,-4.56536 -0.0801,-8.26758 h 3.17383 l 0.11133,8.26758 c 0,0 -0.0445,-4.56536 -0.0801,-8.26758 h 3.17187 l 0.11133,8.26758 c 0,0 -0.0448,-4.56536 -0.0801,-8.26758 h 3.17383 l 0.11133,8.26758 c 0,0 -0.0445,-4.56536 -0.0801,-8.26758 h 3.17383 l 0.11133,8.26758 c 0,0 -0.0445,-4.56536 -0.0801,-8.26758 h 2.32031 v -11.92383 h -2.46094 c -0.0493,-3.3702 -0.10067,-6.2759 -0.15429,-7.50976 l 0.10156,7.50976 h -3.15234 c -0.0493,-3.3702 -0.10068,-6.2759 -0.1543,-7.50976 l 0.10156,7.50976 h -3.15039 c -0.0491,-3.3702 -0.10067,-6.2759 -0.1543,-7.50976 l 0.10157,7.50976 h -3.15235 c -0.0493,-3.3702 -0.10067,-6.2759 -0.15429,-7.50976 l 0.10156,7.50976 h -3.15235 c -0.0493,-3.3702 -0.10067,-6.2759 -0.15429,-7.50976 l 0.10156,7.50976 h -3.15039 c -0.0491,-3.3702 -0.10067,-6.2759 -0.1543,-7.50976 l 0.10156,7.50976 h -3.15234 c -0.0491,-3.3702 -0.10067,-6.2759 -0.1543,-7.50976 l 0.10157,7.50976 h -3.15235 c -0.0493,-3.3702 -0.10067,-6.2759 -0.15429,-7.50976 l 0.10156,7.50976 h -3.15235 c -0.0493,-3.3702 -0.10067,-6.2759 -0.15429,-7.50976 L 591,415.72656 h -3.15039 c -0.0491,-3.3702 -0.10067,-6.2759 -0.1543,-7.50976 l 0.10157,7.50976 h -3.15235 c -0.0491,-3.3702 -0.10067,-6.2759 -0.1543,-7.50976 l 0.10157,7.50976 h -3.15235 c -0.0493,-3.3702 -0.10067,-6.2759 -0.15429,-7.50976 l 0.10156,7.50976 h -3.15234 c -0.0493,-3.3702 -0.10068,-6.2759 -0.1543,-7.50976 l 0.10156,7.50976 h -3.15039 c -0.0491,-3.3702 -0.10067,-6.2759 -0.1543,-7.50976 l 0.10157,7.50976 h -3.15235 c -0.0491,-3.3702 -0.10067,-6.2759 -0.15429,-7.50976 l 0.10156,7.50976 h -3.15235 c -0.0493,-3.3702 -0.10067,-6.2759 -0.15429,-7.50976 l 0.10156,7.50976 h -3.15234 c -0.0493,-3.3702 -0.10068,-6.2759 -0.1543,-7.50976 l 0.10156,7.50976 h -3.15039 c -0.0491,-3.3702 -0.10067,-6.2759 -0.1543,-7.50976 l 0.10157,7.50976 h -3.15235 c -0.0493,-3.3702 -0.10067,-6.2759 -0.15429,-7.50976 l 0.10156,7.50976 h -3.15235 c -0.0493,-3.3702 -0.10067,-6.2759 -0.15429,-7.50976 l 0.10156,7.50976 h -3.15234 c -0.0493,-3.3702 -0.10068,-6.2759 -0.1543,-7.50976 l 0.10156,7.50976 h -3.15039 c -0.0491,-3.3702 -0.10067,-6.2759 -0.1543,-7.50976 l 0.10157,7.50976 h -3.15235 c -0.0493,-3.3702 -0.10067,-6.2759 -0.15429,-7.50976 l 0.10156,7.50976 h -3.15234 c -0.0493,-3.3702 -0.10068,-6.2759 -0.1543,-7.50976 l 0.10156,7.50976 h -3.15234 c -0.0493,-3.3702 -0.10068,-6.2759 -0.1543,-7.50976 l 0.10156,7.50976 h -3.15039 c -0.0491,-3.3702 -0.10067,-6.2759 -0.15429,-7.50976 l 0.10156,7.50976 h -3.15235 c -0.0493,-3.3702 -0.10067,-6.2759 -0.15429,-7.50976 l 0.10156,7.50976 h -3.15234 c -0.0493,-3.3702 -0.10068,-6.2759 -0.1543,-7.50976 l 0.10156,7.50976 h -3.15039 c -0.0491,-3.3702 -0.10067,-6.2759 -0.1543,-7.50976 l 0.10157,7.50976 h -3.15235 c -0.0491,-3.3702 -0.10067,-6.2759 -0.15429,-7.50976 l 0.10156,7.50976 h -3.15235 c -0.0493,-3.3702 -0.10067,-6.2759 -0.15429,-7.50976 l 0.10156,7.50976 h -3.15234 c -0.0493,-3.3702 -0.10068,-6.2759 -0.1543,-7.50976 l 0.10156,7.50976 h -3.15039 c -0.0491,-3.3702 -0.10067,-6.2759 -0.1543,-7.50976 l 0.10157,7.50976 h -3.15235 c -0.0491,-3.3702 -0.10067,-6.2759 -0.15429,-7.50976 z"
       transform="scale(0.26458333)" />
    <rect
       style="color:#000000;overflow:visible;fill:none;stroke:#000000;stroke-width:0.5;stroke-linecap:round;stroke-linejoin:round;stroke-miterlimit:4;stroke-dasharray:none;stroke-opacity:1"
       id="rect915"
       width="37.636631"
       height="10.201509"
       x="133.90717"
       y="106.57108" />
    <path
       id="rect917"
       style="color:#000000;overflow:visible;fill:#ff6464;fill-opacity:0.470588;stroke:#000000;stroke-width:0.5;stroke-linecap:round;stroke-linejoin:round;stroke-miterlimit:4;stroke-dasharray:none;stroke-opacity:1"
       d="m 72.301949,110.01285 c 0,-2.56518 2.065107,-3.83794 4.630285,-3.83794 h 56.999706 c 0,4.25888 -0.0248,2.06511 -0.0248,4.63029 v 1.83231 c 0,2.56517 0.0248,1.60945 0.0248,4.63028 H 76.932234 c -2.565178,0 -4.531241,-1.47085 -4.531241,-4.03602"
       sodipodi:nodetypes="cscsscsc" />
    <path
       style="fill:none;fill-rule:evenodd;stroke:#000000;stroke-width:0.565;stroke-linecap:butt;stroke-linejoin:miter;stroke-miterlimit:4;stroke-dasharray:none;stroke-opacity:1"
       d="m 171.60083,115.08298 10.2788,-2.04727 -0.004,-3.16005 -10.29082,-1.67234"
       id="path921"
       sodipodi:nodetypes="cccc" />
    <path
       style="fill:#a0a0a0;fill-opacity:1;fill-rule:evenodd;stroke:#000000;stroke-width:0.264583px;stroke-linecap:butt;stroke-linejoin:miter;stroke-opacity:1"
       d="m 181.86485,112.75459 1.48991,-0.018 2.92179,-0.79235 -0.0495,-0.86663 -2.74847,-0.81712 -1.6007,0.0433"
       id="path923"
       sodipodi:nodetypes="cccccc" />
    <path
       id="rect925"
       style="color:#000000;overflow:visible;fill:none;stroke:#000000;stroke-width:0.4;stroke-linecap:round;stroke-linejoin:round;stroke-miterlimit:4;stroke-dasharray:none;stroke-opacity:1"
       d="m 56.232085,110.59935 c 0,-3.07273 2.473717,-4.42444 5.54645,-4.42444 h 15.153699 m 0,11.09289 -15.153699,1e-5 c -3.072733,0 -5.54645,-1.56854 -5.54645,-4.64128"
       sodipodi:nodetypes="csccsc" />
    <rect
       style="color:#000000;overflow:visible;fill:#000000;fill-opacity:1;stroke:none;stroke-width:0.165;stroke-linecap:round;stroke-linejoin:round;stroke-opacity:1"
       id="rect931"
       width="0.98048323"
       height="0.56027609"
       x="176.69708"
       y="112.89564"
       ry="0" />
    <rect
       style="color:#000000;overflow:visible;fill:#a0a0a0;fill-opacity:1;stroke:none;stroke-width:0.165;stroke-linecap:round;stroke-linejoin:round;stroke-opacity:1"
       id="rect931-3"
       width="0.98048323"
       height="0.56027609"
       x="176.66206"
       y="109.95419"
       ry="0" />
    <rect
       style="color:#000000;overflow:visible;fill:#000000;fill-opacity:1;stroke:none;stroke-width:2;stroke-linecap:butt;stroke-linejoin:round;stroke-miterlimit:4;stroke-dasharray:none;stroke-dashoffset:0;stroke-opacity:1"
       id="rect1496"
       width="7.8731303"
       height="10.320127"
       x="163.67065"
       y="106.45246"
       ry="0" />
    <path
       style="fill:none;fill-rule:evenodd;stroke:#ff0f0f;stroke-width:0.264583;stroke-linecap:butt;stroke-linejoin:miter;stroke-miterlimit:4;stroke-dasharray:0.793749, 0.793749;stroke-dashoffset:0;stroke-opacity:1"
       d="m 176.66206,109.95419 c -3.43452,-0.97207 -13.53699,-0.70892 -13.53699,-0.70892"
       id="path953"
       sodipodi:nodetypes="cc" />
    <path
       style="fill:none;fill-rule:evenodd;stroke:#000000;stroke-width:0.264583px;stroke-linecap:butt;stroke-linejoin:miter;stroke-opacity:1"
       d="m 72.301948,110.01285 0.09905,3.21892"
       id="path995" />
    <path
       style="fill:none;fill-rule:evenodd;stroke:#ff0f0f;stroke-width:0.264583;stroke-linecap:butt;stroke-linejoin:miter;stroke-miterlimit:4;stroke-dasharray:0.793749, 0.793749;stroke-dashoffset:0;stroke-opacity:1"
       d="m 176.69708,113.45592 c -3.43452,0.97207 -13.53699,0.70892 -13.53699,0.70892"
       id="path953-5"
       sodipodi:nodetypes="cc" />
    <rect
       style="color:#000000;overflow:visible;fill:#6d0000;fill-opacity:1;stroke:none;stroke-width:0.389017;stroke-linecap:round;stroke-linejoin:round;stroke-miterlimit:4;stroke-dasharray:none;stroke-dashoffset:0;stroke-opacity:0.700535"
       id="rect1015-5"
       width="48.308868"
       height="2.11748"
       x="133.59547"
       y="110.51405" />
    <text
       xml:space="preserve"
       style="font-size:4.58611px;line-height:125%;font-family:sans-serif;-inkscape-font-specification:sans-serif;letter-spacing:0px;word-spacing:0px;fill:#000000;fill-opacity:1;stroke:none;stroke-width:0.264583px;stroke-linecap:butt;stroke-linejoin:miter;stroke-opacity:1"
       x="81.099953"
       y="113.31585"
       id="text1418"><tspan
         sodipodi:role="line"
         id="tspan1416"
         x="81.099953"
         y="113.31585"
         style="font-size:4.58611px;fill:#000000;fill-opacity:1;stroke:none;stroke-width:0.264583px">ink compartment</tspan></text>
    <text
       xml:space="preserve"
       style="font-size:4.58611px;line-height:125%;font-family:sans-serif;-inkscape-font-specification:sans-serif;letter-spacing:0px;word-spacing:0px;fill:#000000;fill-opacity:1;stroke:none;stroke-width:0.264583px;stroke-linecap:butt;stroke-linejoin:miter;stroke-opacity:1"
       x="59.735668"
       y="100.72371"
       id="text1422"><tspan
         sodipodi:role="line"
         id="tspan1420"
         x="59.735668"
         y="100.72371"
         style="font-size:4.58611px;fill:#000000;fill-opacity:1;stroke:none;stroke-width:0.264583px">weak wall</tspan></text>
    <text
       xml:space="preserve"
       style="font-size:4.58611px;line-height:125%;font-family:sans-serif;-inkscape-font-specification:sans-serif;letter-spacing:0px;word-spacing:0px;fill:#000000;fill-opacity:1;stroke:none;stroke-width:0.264583px;stroke-linecap:butt;stroke-linejoin:miter;stroke-opacity:1"
       x="55.348545"
       y="124.8304"
       id="text1422-9"><tspan
         sodipodi:role="line"
         id="tspan1420-3"
         x="55.348545"
         y="124.8304"
         style="font-size:4.58611px;fill:#000000;fill-opacity:1;stroke:none;stroke-width:0.264583px">useless hole?</tspan></text>
    <text
       xml:space="preserve"
       style="font-size:4.58611px;line-height:125%;font-family:sans-serif;-inkscape-font-specification:sans-serif;letter-spacing:0px;word-spacing:0px;fill:#000000;fill-opacity:1;stroke:none;stroke-width:0.264583px;stroke-linecap:butt;stroke-linejoin:miter;stroke-opacity:1"
       x="172.54823"
       y="104.6874"
       id="text1422-9-7"><tspan
         sodipodi:role="line"
         id="tspan1420-3-4"
         x="172.54823"
         y="104.6874"
         style="font-size:4.58611px;fill:#000000;fill-opacity:1;stroke:none;stroke-width:0.264583px">nostrils</tspan></text>
    <text
       xml:space="preserve"
       style="font-size:4.58611px;line-height:125%;font-family:sans-serif;-inkscape-font-specification:sans-serif;letter-spacing:0px;word-spacing:0px;fill:#000000;fill-opacity:1;stroke:none;stroke-width:0.264583px;stroke-linecap:butt;stroke-linejoin:miter;stroke-opacity:1"
       x="117.18404"
       y="104.1002"
       id="text1422-9-7-5"><tspan
         sodipodi:role="line"
         id="tspan1420-3-4-2"
         x="117.18404"
         y="104.1002"
         style="font-size:4.58611px;fill:#000000;fill-opacity:1;stroke:none;stroke-width:0.264583px">wick</tspan></text>
    <text
       xml:space="preserve"
       style="font-size:4.58611px;line-height:125%;font-family:sans-serif;-inkscape-font-specification:sans-serif;letter-spacing:0px;word-spacing:0px;fill:#000000;fill-opacity:1;stroke:none;stroke-width:0.264583px;stroke-linecap:butt;stroke-linejoin:miter;stroke-opacity:1"
       x="141.32542"
       y="124.29853"
       id="text1422-9-7-54"><tspan
         sodipodi:role="line"
         id="tspan1420-3-4-7"
         x="141.32542"
         y="124.29853"
         style="font-size:4.58611px;fill:#000000;fill-opacity:1;stroke:none;stroke-width:0.264583px">comb</tspan></text>
    <path
       style="fill:none;fill-rule:evenodd;stroke:#000000;stroke-width:0.265;stroke-linecap:butt;stroke-linejoin:miter;stroke-miterlimit:4;stroke-dasharray:none;stroke-opacity:1;marker-end:url(#Arrow1Mend)"
       d="m 57.708439,121.29978 c -5.742828,-6.30311 -6.668763,-8.06179 -2.542359,-9.23752"
       id="path1510"
       sodipodi:nodetypes="cc" />
    <path
       style="fill:none;fill-rule:evenodd;stroke:#000000;stroke-width:0.264583px;stroke-linecap:butt;stroke-linejoin:miter;stroke-opacity:1;marker-end:url(#marker1880)"
       d="m 62.595656,101.6189 c 3.268446,6.23975 1.386612,9.01298 7.329239,9.5082"
       id="path1870" />
    <path
       style="fill:none;fill-rule:evenodd;stroke:#000000;stroke-width:0.264583px;stroke-linecap:butt;stroke-linejoin:miter;stroke-opacity:1;marker-end:url(#marker1928)"
       d="m 127.91501,104.59021 2.22849,4.7541"
       id="path1918" />
    <path
       style="fill:none;fill-rule:evenodd;stroke:#000000;stroke-width:0.264583px;stroke-linecap:butt;stroke-linejoin:miter;stroke-opacity:1;marker-end:url(#marker2044)"
       d="m 148.61324,120.3193 -0.92796,-4.30713"
       id="path2034" />
    <path
       style="fill:none;fill-rule:evenodd;stroke:#000000;stroke-width:0.264583px;stroke-linecap:butt;stroke-linejoin:miter;stroke-opacity:1;marker-end:url(#marker2106)"
       d="m 176.9912,105.58065 0.14007,3.82975"
       id="path2094"
       sodipodi:nodetypes="cc" />
    <path
       style="fill:none;fill-rule:evenodd;stroke:#000000;stroke-width:0.264583px;stroke-linecap:butt;stroke-linejoin:miter;stroke-opacity:1;marker-end:url(#marker2158)"
       d="m 178.32829,105.38256 c 0.74283,2.82275 3.19338,3.52882 -0.65072,7.51308"
       id="path2096"
       sodipodi:nodetypes="cc" />
    <text
       xml:space="preserve"
       style="font-size:4.58611px;line-height:125%;font-family:sans-serif;-inkscape-font-specification:sans-serif;letter-spacing:0px;word-spacing:0px;fill:#000000;fill-opacity:1;stroke:none;stroke-width:0.264583px;stroke-linecap:butt;stroke-linejoin:miter;stroke-opacity:1"
       x="95.252167"
       y="124.32315"
       id="text1422-9-7-54-8"><tspan
         sodipodi:role="line"
         id="tspan1420-3-4-7-6"
         x="95.252167"
         y="124.32315"
         style="font-size:4.58611px;fill:#000000;fill-opacity:1;stroke:none;stroke-width:0.264583px">permeable wall</tspan></text>
    <path
       style="fill:none;fill-rule:evenodd;stroke:#000000;stroke-width:0.264583px;stroke-linecap:butt;stroke-linejoin:miter;stroke-opacity:1;marker-end:url(#marker2302)"
       d="m 125.33988,120.04104 7.87398,-5.1998"
       id="path2292" />
    <g
       id="g2443"
       transform="matrix(0.86579322,0,0,1,17.953338,0)">
      <g
         id="g2407">
        <path
           style="fill:none;fill-rule:evenodd;stroke:#000000;stroke-width:0.264583px;stroke-linecap:butt;stroke-linejoin:miter;stroke-opacity:1"
           d="m 133.90599,104.7016 c 0,-1.3932 8.54422,-1.25917 8.54422,-1.25917"
           id="path2370"
           sodipodi:nodetypes="cc" />
        <path
           style="fill:none;fill-rule:evenodd;stroke:#000000;stroke-width:0.264583px;stroke-linecap:butt;stroke-linejoin:miter;stroke-opacity:1"
           d="m 150.99443,102.18326 c 0,1.3932 -8.54422,1.25917 -8.54422,1.25917"
           id="path2370-8"
           sodipodi:nodetypes="cc" />
      </g>
      <g
         id="g2407-8"
         transform="matrix(1,0,0,-1,17.08844,206.88486)">
        <path
           style="fill:none;fill-rule:evenodd;stroke:#000000;stroke-width:0.264583px;stroke-linecap:butt;stroke-linejoin:miter;stroke-opacity:1"
           d="m 133.90599,104.7016 c 0,-1.3932 8.54422,-1.25917 8.54422,-1.25917"
           id="path2370-4"
           sodipodi:nodetypes="cc" />
        <path
           style="fill:none;fill-rule:evenodd;stroke:#000000;stroke-width:0.264583px;stroke-linecap:butt;stroke-linejoin:miter;stroke-opacity:1"
           d="m 150.99443,102.18326 c 0,1.3932 -8.54422,1.25917 -8.54422,1.25917"
           id="path2370-8-3"
           sodipodi:nodetypes="cc" />
      </g>
    </g>
    <text
       xml:space="preserve"
       style="font-size:4.58611px;line-height:125%;font-family:sans-serif;-inkscape-font-specification:sans-serif;letter-spacing:0px;word-spacing:0px;fill:#000000;fill-opacity:1;stroke:none;stroke-width:0.264583px;stroke-linecap:butt;stroke-linejoin:miter;stroke-opacity:1"
       x="129.65297"
       y="100.03818"
       id="text1422-9-7-54-1"><tspan
         sodipodi:role="line"
         id="tspan1420-3-4-7-4"
         x="129.65297"
         y="100.03818"
         style="font-size:4.58611px;fill:#000000;fill-opacity:1;stroke:none;stroke-width:0.264583px">comb comparment</tspan></text>
  </g>
</svg>
