<?xml version="1.0" encoding="UTF-8" standalone="no"?>
<svg
   xmlns:dc="http://purl.org/dc/elements/1.1/"
   xmlns:cc="http://creativecommons.org/ns#"
   xmlns:rdf="http://www.w3.org/1999/02/22-rdf-syntax-ns#"
   xmlns:svg="http://www.w3.org/2000/svg"
   xmlns="http://www.w3.org/2000/svg"
   xmlns:sodipodi="http://sodipodi.sourceforge.net/DTD/sodipodi-0.dtd"
   xmlns:inkscape="http://www.inkscape.org/namespaces/inkscape"
   width="210mm"
   height="297mm"
   viewBox="0 0 210 297"
   version="1.1"
   id="svg8"
   inkscape:version="1.0.2 (e86c870879, 2021-01-15)"
   sodipodi:docname="diagram.svg">
  <defs
     id="defs2" />
  <sodipodi:namedview
     id="base"
     pagecolor="#ffffff"
     bordercolor="#666666"
     borderopacity="1.0"
     inkscape:pageopacity="0.0"
     inkscape:pageshadow="2"
     inkscape:zoom="1.8889496"
     inkscape:cx="563.29109"
     inkscape:cy="403.3304"
     inkscape:document-units="mm"
     inkscape:current-layer="layer1"
     inkscape:document-rotation="0"
     showgrid="false"
     inkscape:window-width="1298"
     inkscape:window-height="708"
     inkscape:window-x="0"
     inkscape:window-y="0"
     inkscape:window-maximized="1" />
  <metadata
     id="metadata5">
    <rdf:RDF>
      <cc:Work
         rdf:about="">
        <dc:format>image/svg+xml</dc:format>
        <dc:type
           rdf:resource="http://purl.org/dc/dcmitype/StillImage" />
        <dc:title></dc:title>
      </cc:Work>
    </rdf:RDF>
  </metadata>
  <g
     inkscape:label="Layer 1"
     inkscape:groupmode="layer"
     id="layer1">
    <path
       id="rect1015"
       style="color:#000000;overflow:visible;fill:#6d0000;fill-opacity:1;stroke:none;stroke-width:0.13882;stroke-linecap:round;stroke-linejoin:round;stroke-miterlimit:4;stroke-dasharray:none;stroke-dashoffset:0;stroke-opacity:0.700535"
       d="m 127.70796,111.57095 c 0,-1.01099 6.16406,-1.0569 6.16406,-1.0569 v 2.11748 c 0,0 -6.16406,-0.0496 -6.16406,-1.06058 z"
       sodipodi:nodetypes="zccz" />
    <path
       id="rect1390"
       style="color:#000000;overflow:visible;fill:#000000;fill-opacity:1;stroke:#000000;stroke-width:0.755906;stroke-linecap:round;stroke-linejoin:round;stroke-miterlimit:4;stroke-dasharray:none;stroke-dashoffset:0;stroke-opacity:1"
       d="m 510.78516,408.2168 0.10156,7.50976 h -4.44531 v 11.92383 h 4.60547 l 0.11132,8.26758 c 0,0 -0.0448,-4.56536 -0.0801,-8.26758 h 3.17383 l 0.11133,8.26758 c 0,0 -0.0448,-4.56536 -0.0801,-8.26758 h 3.17383 l 0.11133,8.26758 c 0,0 -0.0445,-4.56536 -0.0801,-8.26758 h 3.17383 l 0.11133,8.26758 c 0,0 -0.0445,-4.56536 -0.0801,-8.26758 h 3.17187 l 0.11133,8.26758 c 0,0 -0.0448,-4.56536 -0.0801,-8.26758 h 3.17383 l 0.11133,8.26758 c 0,0 -0.0448,-4.56536 -0.0801,-8.26758 h 3.17383 l 0.11133,8.26758 c 0,0 -0.0445,-4.56536 -0.0801,-8.26758 h 3.17383 l 0.11133,8.26758 c 0,0 -0.0445,-4.56536 -0.0801,-8.26758 h 3.17187 l 0.11133,8.26758 c 0,0 -0.0448,-4.56536 -0.0801,-8.26758 h 3.17383 L 540,435.91797 c 0,0 -0.0445,-4.56536 -0.0801,-8.26758 h 3.17383 l 0.11133,8.26758 c 0,0 -0.0445,-4.56536 -0.0801,-8.26758 h 3.17383 l 0.11133,8.26758 c 0,0 -0.0445,-4.56536 -0.0801,-8.26758 h 3.17187 l 0.11133,8.26758 c 0,0 -0.0448,-4.56536 -0.0801,-8.26758 h 3.17383 l 0.11133,8.26758 c 0,0 -0.0445,-4.56536 -0.0801,-8.26758 h 3.17383 l 0.11133,8.26758 c 0,0 -0.0445,-4.56536 -0.0801,-8.26758 h 3.17383 l 0.11133,8.26758 c 0,0 -0.0445,-4.56536 -0.0801,-8.26758 h 3.17187 l 0.11133,8.26758 c 0,0 -0.0448,-4.56536 -0.0801,-8.26758 h 3.17383 l 0.11133,8.26758 c 0,0 -0.0445,-4.56536 -0.0801,-8.26758 h 3.17383 l 0.11133,8.26758 c 0,0 -0.0445,-4.56536 -0.0801,-8.26758 h 3.17187 l 0.11133,8.26758 c 0,0 -0.0448,-4.56536 -0.0801,-8.26758 h 3.17383 l 0.11133,8.26758 c 0,0 -0.0448,-4.56536 -0.0801,-8.26758 h 3.17383 l 0.11133,8.26758 c 0,0 -0.0445,-4.56536 -0.0801,-8.26758 h 3.17383 l 0.11133,8.26758 c 0,0 -0.0445,-4.56536 -0.0801,-8.26758 h 3.17187 l 0.11133,8.26758 c 0,0 -0.0448,-4.56536 -0.0801,-8.26758 h 3.17383 l 0.11133,8.26758 c 0,0 -0.0448,-4.56536 -0.0801,-8.26758 h 3.17383 l 0.11133,8.26758 c 0,0 -0.0445,-4.56536 -0.0801,-8.26758 h 3.17383 l 0.11133,8.26758 c 0,0 -0.0445,-4.56536 -0.0801,-8.26758 h 3.17187 l 0.11133,8.26758 c 0,0 -0.0448,-4.56536 -0.0801,-8.26758 h 3.17383 l 0.11133,8.26758 c 0,0 -0.0448,-4.56536 -0.0801,-8.26758 h 3.17383 l 0.11133,8.26758 c 0,0 -0.0445,-4.56536 -0.0801,-8.26758 h 3.17383 l 0.11133,8.26758 c 0,0 -0.0445,-4.56536 -0.0801,-8.26758 h 3.17187 l 0.11133,8.26758 c 0,0 -0.0448,-4.56536 -0.0801,-8.26758 h 3.17383 l 0.11133,8.26758 c 0,0 -0.0445,-4.56536 -0.0801,-8.26758 h 3.17383 l 0.11133,8.26758 c 0,0 -0.0445,-4.56536 -0.0801,-8.26758 h 2.32031 v -11.92383 h -2.46094 c -0.0493,-3.3702 -0.10067,-6.2759 -0.15429,-7.50976 l 0.10156,7.50976 h -3.15234 c -0.0493,-3.3702 -0.10068,-6.2759 -0.1543,-7.50976 l 0.10156,7.50976 h -3.15039 c -0.0491,-3.3702 -0.10067,-6.2759 -0.1543,-7.50976 l 0.10157,7.50976 h -3.15235 c -0.0493,-3.3702 -0.10067,-6.2759 -0.15429,-7.50976 l 0.10156,7.50976 h -3.15235 c -0.0493,-3.3702 -0.10067,-6.2759 -0.15429,-7.50976 l 0.10156,7.50976 h -3.15039 c -0.0491,-3.3702 -0.10067,-6.2759 -0.1543,-7.50976 l 0.10156,7.50976 h -3.15234 c -0.0491,-3.3702 -0.10067,-6.2759 -0.1543,-7.50976 l 0.10157,7.50976 h -3.15235 c -0.0493,-3.3702 -0.10067,-6.2759 -0.15429,-7.50976 l 0.10156,7.50976 h -3.15235 c -0.0493,-3.3702 -0.10067,-6.2759 -0.15429,-7.50976 L 591,415.72656 h -3.15039 c -0.0491,-3.3702 -0.10067,-6.2759 -0.1543,-7.50976 l 0.10157,7.50976 h -3.15235 c -0.0491,-3.3702 -0.10067,-6.2759 -0.1543,-7.50976 l 0.10157,7.50976 h -3.15235 c -0.0493,-3.3702 -0.10067,-6.2759 -0.15429,-7.50976 l 0.10156,7.50976 h -3.15234 c -0.0493,-3.3702 -0.10068,-6.2759 -0.1543,-7.50976 l 0.10156,7.50976 h -3.15039 c -0.0491,-3.3702 -0.10067,-6.2759 -0.1543,-7.50976 l 0.10157,7.50976 h -3.15235 c -0.0491,-3.3702 -0.10067,-6.2759 -0.15429,-7.50976 l 0.10156,7.50976 h -3.15235 c -0.0493,-3.3702 -0.10067,-6.2759 -0.15429,-7.50976 l 0.10156,7.50976 h -3.15234 c -0.0493,-3.3702 -0.10068,-6.2759 -0.1543,-7.50976 l 0.10156,7.50976 h -3.15039 c -0.0491,-3.3702 -0.10067,-6.2759 -0.1543,-7.50976 l 0.10157,7.50976 h -3.15235 c -0.0493,-3.3702 -0.10067,-6.2759 -0.15429,-7.50976 l 0.10156,7.50976 h -3.15235 c -0.0493,-3.3702 -0.10067,-6.2759 -0.15429,-7.50976 l 0.10156,7.50976 h -3.15234 c -0.0493,-3.3702 -0.10068,-6.2759 -0.1543,-7.50976 l 0.10156,7.50976 h -3.15039 c -0.0491,-3.3702 -0.10067,-6.2759 -0.1543,-7.50976 l 0.10157,7.50976 h -3.15235 c -0.0493,-3.3702 -0.10067,-6.2759 -0.15429,-7.50976 l 0.10156,7.50976 h -3.15234 c -0.0493,-3.3702 -0.10068,-6.2759 -0.1543,-7.50976 l 0.10156,7.50976 h -3.15234 c -0.0493,-3.3702 -0.10068,-6.2759 -0.1543,-7.50976 l 0.10156,7.50976 h -3.15039 c -0.0491,-3.3702 -0.10067,-6.2759 -0.15429,-7.50976 l 0.10156,7.50976 h -3.15235 c -0.0493,-3.3702 -0.10067,-6.2759 -0.15429,-7.50976 l 0.10156,7.50976 h -3.15234 c -0.0493,-3.3702 -0.10068,-6.2759 -0.1543,-7.50976 l 0.10156,7.50976 h -3.15039 c -0.0491,-3.3702 -0.10067,-6.2759 -0.1543,-7.50976 l 0.10157,7.50976 h -3.15235 c -0.0491,-3.3702 -0.10067,-6.2759 -0.15429,-7.50976 l 0.10156,7.50976 h -3.15235 c -0.0493,-3.3702 -0.10067,-6.2759 -0.15429,-7.50976 l 0.10156,7.50976 h -3.15234 c -0.0493,-3.3702 -0.10068,-6.2759 -0.1543,-7.50976 l 0.10156,7.50976 h -3.15039 c -0.0491,-3.3702 -0.10067,-6.2759 -0.1543,-7.50976 l 0.10157,7.50976 h -3.15235 c -0.0491,-3.3702 -0.10067,-6.2759 -0.15429,-7.50976 z"
       transform="scale(0.26458333)" />
    <rect
       style="color:#000000;overflow:visible;fill:none;stroke:#000000;stroke-width:0.5;stroke-linecap:round;stroke-linejoin:round;stroke-miterlimit:4;stroke-dasharray:none;stroke-opacity:1"
       id="rect915"
       width="37.636631"
       height="10.201509"
       x="133.90717"
       y="106.57108" />
    <path
       id="rect917"
       style="color:#000000;overflow:visible;fill:#ff6464;fill-opacity:0.470588;stroke:#000000;stroke-width:0.5;stroke-linecap:round;stroke-linejoin:round;stroke-miterlimit:4;stroke-dasharray:none;stroke-opacity:1"
       d="m 72.301949,110.01285 c 0,-2.56518 2.065107,-3.83794 4.630285,-3.83794 h 56.999706 c 0,4.25888 -0.0248,2.06511 -0.0248,4.63029 v 1.83231 c 0,2.56517 0.0248,1.60945 0.0248,4.63028 H 76.932234 c -2.565178,0 -4.531241,-1.47085 -4.531241,-4.03602"
       sodipodi:nodetypes="cscsscsc" />
    <path
       style="fill:none;fill-rule:evenodd;stroke:#000000;stroke-width:0.565;stroke-linecap:butt;stroke-linejoin:miter;stroke-miterlimit:4;stroke-dasharray:none;stroke-opacity:1"
       d="m 171.60083,115.08298 10.2788,-2.04727 -0.004,-3.16005 -10.29082,-1.67234"
       id="path921"
       sodipodi:nodetypes="cccc" />
    <path
       style="fill:#a0a0a0;fill-opacity:1;fill-rule:evenodd;stroke:#000000;stroke-width:0.264583px;stroke-linecap:butt;stroke-linejoin:miter;stroke-opacity:1"
       d="m 181.86485,112.75459 1.48991,-0.018 2.92179,-0.79235 -0.0495,-0.86663 -2.74847,-0.81712 -1.6007,0.0433"
       id="path923"
       sodipodi:nodetypes="cccccc" />
    <path
       id="rect925"
       style="color:#000000;overflow:visible;fill:none;stroke:#000000;stroke-width:0.4;stroke-linecap:round;stroke-linejoin:round;stroke-miterlimit:4;stroke-dasharray:none;stroke-opacity:1"
       d="m 56.232085,110.59935 c 0,-3.07273 2.473717,-4.42444 5.54645,-4.42444 h 15.153699 m 0,11.09289 -15.153699,1e-5 c -3.072733,0 -5.54645,-1.56854 -5.54645,-4.64128"
       sodipodi:nodetypes="csccsc" />
    <rect
       style="color:#000000;overflow:visible;fill:#000000;fill-opacity:1;stroke:none;stroke-width:0.165;stroke-linecap:round;stroke-linejoin:round;stroke-opacity:1"
       id="rect931"
       width="0.98048323"
       height="0.56027609"
       x="176.69708"
       y="112.89564"
       ry="0" />
    <rect
       style="color:#000000;overflow:visible;fill:#a0a0a0;fill-opacity:1;stroke:none;stroke-width:0.165;stroke-linecap:round;stroke-linejoin:round;stroke-opacity:1"
       id="rect931-3"
       width="0.98048323"
       height="0.56027609"
       x="176.66206"
       y="109.95419"
       ry="0" />
    <path
       style="fill:none;fill-rule:evenodd;stroke:#ff0f0f;stroke-width:0.264583;stroke-linecap:butt;stroke-linejoin:miter;stroke-miterlimit:4;stroke-dasharray:0.793749, 0.793749;stroke-dashoffset:0;stroke-opacity:1"
       d="m 176.66206,109.95419 c -3.43452,-0.97207 -13.53699,-0.70892 -13.53699,-0.70892"
       id="path953"
       sodipodi:nodetypes="cc" />
    <path
       style="fill:none;fill-rule:evenodd;stroke:#000000;stroke-width:0.264583px;stroke-linecap:butt;stroke-linejoin:miter;stroke-opacity:1"
       d="m 72.301948,110.01285 0.09905,3.21892"
       id="path995" />
    <path
       style="fill:none;fill-rule:evenodd;stroke:#ff0f0f;stroke-width:0.264583;stroke-linecap:butt;stroke-linejoin:miter;stroke-miterlimit:4;stroke-dasharray:0.793749, 0.793749;stroke-dashoffset:0;stroke-opacity:1"
       d="m 176.69708,113.45592 c -3.43452,0.97207 -13.53699,0.70892 -13.53699,0.70892"
       id="path953-5"
       sodipodi:nodetypes="cc" />
    <rect
       style="color:#000000;overflow:visible;fill:#6d0000;fill-opacity:1;stroke:none;stroke-width:0.389017;stroke-linecap:round;stroke-linejoin:round;stroke-miterlimit:4;stroke-dasharray:none;stroke-dashoffset:0;stroke-opacity:0.700535"
       id="rect1015-5"
       width="48.308868"
       height="2.11748"
       x="133.59547"
       y="110.51405" />
  </g>
</svg>
